Name,Code,Barcode Symbology,Brand,Cost,Price, Tax Rate Name,Tax Method,Image,Promo Price,Start Date,End Date
AK-2472BKGB,2311200087,code128,Anne Klein Klein,"5,550","11,100",2%,inclusive,,,,
AK-2619SVTN,2311200109,code128,Anne Klein Klein,"3,600","7,200",2%,inclusive,,,,
AK-2787SVSV,2311200148,code128,Anne Klein Klein,"3,600","7,200",2%,inclusive,,,,
AK-2894BNTO,2311200164,code128,Anne Klein Klein,"4,175","8,350",2%,inclusive,,,,
ARS1002,2311400022,code128,ARMANI,"48,800","97,600",2%,inclusive,,,,
ARS2000,2311400029,code128,ARMANI,"48,800","97,600",2%,inclusive,,,,
ARS2002,2311400030,code128,ARMANI,"37,900","75,800",2%,inclusive,,,,
ARS2006,2311400034,code128,ARMANI,"54,250","108,500",2%,inclusive,,,,
ARS2013,2311400035,code128,ARMANI,"70,600","141,200",2%,inclusive,,,,
ARS3002,2311400038,code128,ARMANI,"54,250","108,500",2%,inclusive,,,,
ARS3003,2311400039,code128,ARMANI,"70,600","141,200",2%,inclusive,,,,
ARS3005,2311400040,code128,ARMANI,"70,600","141,200",2%,inclusive,,,,
ARS6000,2311400047,code128,ARMANI,"48,800","97,600",2%,inclusive,,,,
ARS6001,2311400048,code128,ARMANI,"48,800","97,600",2%,inclusive,,,,
ARS6008,2311400051,code128,ARMANI,"70,600","141,200",2%,inclusive,,,,
ARS7000,2311400053,code128,ARMANI,"54,250","108,500",2%,inclusive,,,,
ARS7012,2311400054,code128,ARMANI,"37,900","75,800",2%,inclusive,,,,
ARS7013,2311400057,code128,ARMANI,"37,900","75,800",2%,inclusive,,,,
20/4309GYTT,2311200206,code128,ARMITRON,"3,875","7,750",2%,inclusive,,,,
20/4664CHGP,2311200215,code128,ARMITRON,"5,000","10,000",2%,inclusive,,,,
20/4991CHGP,2311200250,code128,ARMITRON,"5,550","11,100",2%,inclusive,,,,
20/4991CHGP,2311200252,code128,ARMITRON,"5,550","11,100",2%,inclusive,,,,
20/5062BLU,2311200252,code128,ARMITRON,"3,050","6,100",2%,inclusive,,,,
20/5182BKSV,2311200281,code128,ARMITRON,"5,550","11,100",2%,inclusive,,,,
20/5224BKGP,2311200308,code128,ARMITRON,"6,100","12,200",2%,inclusive,,,,
20/5230BKSV,2311200321,code128,ARMITRON,"3,050","6,100",2%,inclusive,,,,
20/5230SVGP,2311200331,code128,ARMITRON,"3,875","7,750",2%,inclusive,,,,
20/5231WTGP,2311200333,code128,ARMITRON,"5,000","10,000",2%,inclusive,,,,
2015108BRG,2311200383,code128,ARMITRON,"3,050","6,100",2%,inclusive,,,,
20/5144BKTT,2311200271,code128,ARMITRON,"5,825","11,650",2%,inclusive,,,,
20/5221GYTT,2311200304,code128,ARMITRON,"3,875","7,750",2%,inclusive,,,,
20/5221GYTT,2311200305,code128,ARMITRON,"3,875","7,750",2%,inclusive,,,,
25/6429NVY,2311200397,code128,ARMITRON,"3,050","6,100",2%,inclusive,,,,
40/8284LGN,2311200415,code128,ARMITRON,"1,675","3,350",2%,inclusive,,,,
40/8392BOG,2311200433,code128,ARMITRON,"1,950","3,900",2%,inclusive,,,,
45/7064SGY,2311200469,code128,ARMITRON,"1,750","3,500",2%,inclusive,,,,
45/7066BLU,2311200474,code128,ARMITRON,"1,750","3,500",2%,inclusive,,,,
45/7066BLU,2311200476,code128,ARMITRON,"1,750","3,500",2%,inclusive,,,,
45/7086NVY,2311200476,code128,ARMITRON,"1,400","2,800",2%,inclusive,,,,
45/7092BLK,2311200460,code128,ARMITRON,"1,675","3,350",2%,inclusive,,,,
4517066RED,2311700858,code128,ARMITRON,"1,750","3,500",2%,inclusive,,,,
20/5247NVTT,2311200348,code128,ARMITRON,"5,550","11,100",2%,inclusive,,,,
20/5247NVTT,2311200347,code128,ARMITRON,"5,550","11,100",2%,inclusive,,,,
AD/1004BKTIBK,2311200492,code128,ARMITRON,"6,925","13,850",2%,inclusive,,,,
AD/1010BLK,2311200497,code128,ARMITRON,"4,175","8,350",2%,inclusive,,,,
BU10000,2311400058,code128,BURBERRY,"43,575","87,150",2%,inclusive,,,,
BU1392,2311400062,code128,BURBERRY,"16,100","32,200",2%,inclusive,,,,
BU7818,2311400064,code128,BURBERRY,"43,350","86,700",2%,inclusive,,,,
BU7830,2311400066,code128,BURBERRY,"27,000","54,000",2%,inclusive,,,,
BU7838,2311300003,code128,BURBERRY,"32,450","64,900",2%,inclusive,,,,
BU7852,2311400067,code128,BURBERRY,"32,450","64,900",2%,inclusive,,,,
BU7854,2311400068,code128,BURBERRY,"32,450","64,900",2%,inclusive,,,,
BU9005,2311400070,code128,BURBERRY,"37,900","75,800",2%,inclusive,,,,
BU9009,2311200507,code128,BURBERRY,"21,550","43,100",2%,inclusive,,,,
BU9013,2311200510,code128,BURBERRY,"27,000","54,000",2%,inclusive,,,,
BU9019,2311400071,code128,BURBERRY,"21,550","43,100",2%,inclusive,,,,
BU9035,2311300009,code128,BURBERRY,"31,025","62,050",2%,inclusive,,,,
BU9105,2311400074,code128,BURBERRY,"32,450","64,900",2%,inclusive,,,,
BU9127,2311400078,code128,BURBERRY,"43,350","86,700",2%,inclusive,,,,
BU9143,2311200518,code128,BURBERRY,"27,000","54,000",2%,inclusive,,,,
BU9205,2311400079,code128,BURBERRY,"32,450","64,900",2%,inclusive,,,,
BU9224,2311400080,code128,BURBERRY,"43,350","86,700",2%,inclusive,,,,
BU9321,2311400083,code128,BURBERRY,"48,800","97,600",2%,inclusive,,,,
BU9350,2311200515,code128,BURBERRY,"37,900","75,800",2%,inclusive,,,,
BU9356,2311200516,code128,BURBERRY,"32,450","64,900",2%,inclusive,,,,
BU9361,2311300012,code128,BURBERRY,"32,450","64,900",2%,inclusive,,,,
BU9500,2311200519,code128,BURBERRY,"27,000","54,000",2%,inclusive,,,,
BU9704,2311400088,code128,BURBERRY,"43,350","86,700",2%,inclusive,,,,
BU9750,2311200520,code128,BURBERRY,"37,900","75,800",2%,inclusive,,,,
CL18015,2311200528,code128,CLUSE,"5,500","11,000",2%,inclusive,,,,
CL18021,2311200532,code128,CLUSE,"5,500","11,000",2%,inclusive,,,,
CL18029,2311200537,code128,CLUSE,"5,500","11,000",2%,inclusive,,,,
CL18109,2311200543,code128,CLUSE,"6,325","12,650",2%,inclusive,,,,
CL18112,2311200558,code128,CLUSE,"6,325","12,650",2%,inclusive,,,,
CL18117,2311200563,code128,CLUSE,"6,325","12,650",2%,inclusive,,,,
CL18210,2311200565,code128,CLUSE,"5,500","11,000",2%,inclusive,,,,
CL18301,2311200570,code128,CLUSE,"5,500","11,000",2%,inclusive,,,,
CL18414,2311200584,code128,CLUSE,"5,500","11,000",2%,inclusive,,,,
CL18422,2311200591,code128,CLUSE,"5,500","11,000",2%,inclusive,,,,
CL30009,2311200608,code128,CLUSE,"5,500","11,000",2%,inclusive,,,,
CL30013,2311200612,code128,CLUSE,"6,325","12,650",2%,inclusive,,,,
CL30019,2311200619,code128,CLUSE,"5,500","11,000",2%,inclusive,,,,
CL30023,2311200627,code128,CLUSE,"5,500","11,000",2%,inclusive,,,,
CL30036,2311200638,code128,CLUSE,"5,500","11,000",2%,inclusive,,,,
CL30038,2311200643,code128,CLUSE,"5,500","11,000",2%,inclusive,,,,
CL40001,2311200647,code128,CLUSE,"9,925","19,850",2%,inclusive,,,,
CL40002,2311200653,code128,CLUSE,"9,925","19,850",2%,inclusive,,,,
CL40103,2311200656,code128,CLUSE,"9,925","19,850",2%,inclusive,,,,
CL40104,2311200662,code128,CLUSE,"9,925","19,850",2%,inclusive,,,,
CL40105,2311200664,code128,CLUSE,"9,925","19,850",2%,inclusive,,,,
CL40106,2311200670,code128,CLUSE,"9,925","19,850",2%,inclusive,,,,
CL50007,2311200696,code128,CLUSE,"6,325","12,650",2%,inclusive,,,,
CL50008,2311200702,code128,CLUSE,"5,500","11,000",2%,inclusive,,,,
CL50009,2311200707,code128,CLUSE,"5,500","11,000",2%,inclusive,,,,
CL50010,2311200711,code128,CLUSE,"5,500","11,000",2%,inclusive,,,,
CL50020,2311200714,code128,CLUSE,"5,500","11,000",2%,inclusive,,,,
CL50021,2311200720,code128,CLUSE,"5,500","11,000",2%,inclusive,,,,
DZ1209,2311200796,code128,DIESEL,"12,600","25,200",2%,inclusive,,,,
DZ1295,2311200799,code128,DIESEL,"8,825","17,650",2%,inclusive,,,,
DZ1320,2311400095,code128,DIESEL,"15,500","31,000",2%,inclusive,,,,
DZ1370,2311300061,code128,DIESEL,"10,075","20,150",2%,inclusive,,,,
DZ1371,2311200815,code128,DIESEL,"12,325","24,650",2%,inclusive,,,,
DZ1404,2311400099,code128,DIESEL,"15,500","31,000",2%,inclusive,,,,
DZ1460,2311300066,code128,DIESEL,"8,825","17,650",2%,inclusive,,,,
DZ1467,2311400101,code128,DIESEL,"8,825","17,650",2%,inclusive,,,,
DZ1514,2311300070,code128,DIESEL,"8,550","17,100",2%,inclusive,,,,
DZ1558,2311200819,code128,DIESEL,"12,325","24,650",2%,inclusive,,,,
DZ1566,2311200821,code128,DIESEL,"12,325","24,650",2%,inclusive,,,,
DZ1597,2311300077,code128,DIESEL,"8,825","17,650",2%,inclusive,,,,
DZ1664,2311400111,code128,DIESEL,"12,325","24,650",2%,inclusive,,,,
DZ1693,2311700765,code128,DIESEL,"11,300","22,600",2%,inclusive,,,,
DZ4207,2311300085,code128,DIESEL,"16,000","32,000",2%,inclusive,,,,
DZ4209,2311300088,code128,DIESEL,"14,200","28,400",2%,inclusive,,,,
DZ4210,2311300089,code128,DIESEL,"14,200","28,400",2%,inclusive,,,,
DZ4215,2311400117,code128,DIESEL,"15,125","30,250",2%,inclusive,,,,
DZ4216,2311300092,code128,DIESEL,"14,200","28,400",2%,inclusive,,,,
DZ4223,2311200831,code128,DIESEL,"14,200","28,400",2%,inclusive,,,,
DZ4348,2311400130,code128,DIESEL,"16,300","32,600",2%,inclusive,,,,
DZ4354,2311300098,code128,DIESEL,"16,300","32,600",2%,inclusive,,,,
DZ4427,2311200837,code128,DIESEL,"15,050","30,100",2%,inclusive,,,,
DZ4439,2311300100,code128,DIESEL,"13,800","27,600",2%,inclusive,,,,
DZ4450,2311300103,code128,DIESEL,"12,550","25,100",2%,inclusive,,,,
DZ5228,2311300104,code128,DIESEL,"10,000","20,000",2%,inclusive,,,,
DZ5297,2311400132,code128,DIESEL,"10,000","20,000",2%,inclusive,,,,
DZ5297,2311500016,code128,DIESEL,"10,000","20,000",2%,inclusive,,,,
DZ5301,2311400136,code128,DIESEL,"13,900","27,800",2%,inclusive,,,,
DZ5444,2311400139,code128,DIESEL,"8,775","17,550",2%,inclusive,,,,
DZ5445,2311300108,code128,DIESEL,"10,050","20,100",2%,inclusive,,,,
DZ5446,2311400140,code128,DIESEL,"14,125","28,250",2%,inclusive,,,,
DZ7101,2311400143,code128,DIESEL,"13,950","27,900",2%,inclusive,,,,
DZ7192,2311500018,code128,DIESEL,"13,950","27,900",2%,inclusive,,,,
DZ7193,2311300116,code128,DIESEL,"20,475","40,950",2%,inclusive,,,,
DZ7206,2311300119,code128,DIESEL,"15,500","31,000",2%,inclusive,,,,
DZ7247,2311400150,code128,DIESEL,"26,750","53,500",2%,inclusive,,,,
DZ7291,2311400156,code128,DIESEL,"18,625","37,250",2%,inclusive,,,,
DZ7296,2311400157,code128,DIESEL,"22,075","44,150",2%,inclusive,,,,
DZ7346,2311300128,code128,DIESEL,"18,500","37,000",2%,inclusive,,,,
NY1401,2311300139,code128,DKNY,"9,250","18,500",2%,inclusive,,,,
NY1414,2311300141,code128,DKNY,"11,250","22,500",2%,inclusive,,,,
NY2110,2311300146,code128,DKNY,"11,025","22,050",2%,inclusive,,,,
NY2111,2311300147,code128,DKNY,"11,025","22,050",2%,inclusive,,,,
NY2143,2311300153,code128,DKNY,"14,750","29,500",2%,inclusive,,,,
NY2149,2311300156,code128,DKNY,"12,300","24,600",2%,inclusive,,,,
NY2169,2311000249,code128,DKNY,"7,225","14,450",2%,inclusive,,,,
NY2225,2311300165,code128,DKNY,"18,500","37,000",2%,inclusive,,,,
NY2226,2311300166,code128,DKNY,"18,500","37,000",2%,inclusive,,,,
NY2266,2311300170,code128,DKNY,"8,500","17,000",2%,inclusive,,,,
NY2289,2311300173,code128,DKNY,"14,750","29,500",2%,inclusive,,,,
NY2290,2311300174,code128,DKNY,"14,750","29,500",2%,inclusive,,,,
NY2310,2311000275,code128,DKNY,"7,225","14,450",2%,inclusive,,,,
NY2319,2311300182,code128,DKNY,"7,225","14,450",2%,inclusive,,,,
NY2330,2311300184,code128,DKNY,"13,500","27,000",2%,inclusive,,,,
NY2339,2311300190,code128,DKNY,"5,975","11,950",2%,inclusive,,,,
NY2343,2311300193,code128,DKNY,"8,475","16,950",2%,inclusive,,,,
NY2344,2311300194,code128,DKNY,"8,475","16,950",2%,inclusive,,,,
NY2345,2311300195,code128,DKNY,"7,225","14,450",2%,inclusive,,,,
NY2398,2311000317,code128,DKNY,"7,225","14,450",2%,inclusive,,,,
NY2400,2311300200,code128,DKNY,"8,475","16,950",2%,inclusive,,,,
NY2401,2311300201,code128,DKNY,"8,475","16,950",2%,inclusive,,,,
NY2460,2311000351,code128,DKNY,"8,475","16,950",2%,inclusive,,,,
NY2461,2311000356,code128,DKNY,"14,750","29,500",2%,inclusive,,,,
NY2462,2311300213,code128,DKNY,"13,500","27,000",2%,inclusive,,,,
NY2468,2311000370,code128,DKNY,"8,475","16,950",2%,inclusive,,,,
NY2472,2311300218,code128,DKNY,"13,500","27,000",2%,inclusive,,,,
NY2488,2311000385,code128,DKNY,"9,725","19,450",2%,inclusive,,,,
NY2493,2311000398,code128,DKNY,"10,975","21,950",2%,inclusive,,,,
NY2494,2311000400,code128,DKNY,"12,225","24,450",2%,inclusive,,,,
NY2495,2311200963,code128,DKNY,"12,225","24,450",2%,inclusive,,,,
NY2496,2311300225,code128,DKNY,"13,500","27,000",2%,inclusive,,,,
NY2497,2311300226,code128,DKNY,"15,675","31,350",2%,inclusive,,,,
NY2497,2311500033,code128,DKNY,"15,675","31,350",2%,inclusive,,,,
NY2499,2311400177,code128,DKNY,"13,500","27,000",2%,inclusive,,,,
NY2500,2311300230,code128,DKNY,"14,750","29,500",2%,inclusive,,,,
NY2503,2311300231,code128,DKNY,"10,975","21,950",2%,inclusive,,,,
NY2504,2311300232,code128,DKNY,"10,975","21,950",2%,inclusive,,,,
NY2529,2311300235,code128,DKNY,"17,250","34,500",2%,inclusive,,,,
NY2582,2311300237,code128,DKNY,"8,475","16,950",2%,inclusive,,,,
NY2623,2311300250,code128,DKNY,"9,725","19,450",2%,inclusive,,,,
NY2624,2311300251,code128,DKNY,"10,975","21,950",2%,inclusive,,,,
NY2647,2311201059,code128,DKNY,"6,375","12,750",2%,inclusive,,,,
NY2649,2311201064,code128,DKNY,"7,475","14,950",2%,inclusive,,,,
NY2659,2311201073,code128,DKNY,"8,600","17,200",2%,inclusive,,,,
NY2664,2311201074,code128,DKNY,"6,375","12,750",2%,inclusive,,,,
NY4631,2311300266,code128,DKNY,"4,725","9,450",2%,inclusive,,,,
NY4886,2311300269,code128,DKNY,"12,300","24,600",2%,inclusive,,,,
NY4946,2311300274,code128,DKNY,"7,250","14,500",2%,inclusive,,,,
NY8139,2311300282,code128,DKNY,"11,025","22,050",2%,inclusive,,,,
NY8498,2311300291,code128,DKNY,"12,300","24,600",2%,inclusive,,,,
NY8660,2311300295,code128,DKNY,"9,775","19,550",2%,inclusive,,,,
NY8672,2311300298,code128,DKNY,"18,575","37,150",2%,inclusive,,,,
NY8767,2311300299,code128,DKNY,"9,775","19,550",2%,inclusive,,,,
NY8810,2311300301,code128,DKNY,"9,500","19,000",2%,inclusive,,,,
NY8818,2311300302,code128,DKNY,"11,025","22,050",2%,inclusive,,,,
NY8831,2311300303,code128,DKNY,"4,725","9,450",2%,inclusive,,,,
NY8867,2311300309,code128,DKNY,"7,250","14,500",2%,inclusive,,,,
NY8868,2311000632,code128,DKNY,"7,250","14,500",2%,inclusive,,,,
NY8893,2311300314,code128,DKNY,"12,300","24,600",2%,inclusive,,,,
NY8895,2311300315,code128,DKNY,"9,775","19,550",2%,inclusive,,,,
NY8896,2311400194,code128,DKNY,"13,550","27,100",2%,inclusive,,,,
AR0180,2311400197,code128,Emporio Armani,"12,600","25,200",2%,inclusive,,,,
AR0424,2311400198,code128,Emporio Armani,"9,500","19,000",2%,inclusive,,,,
AR0532,2311400199,code128,Emporio Armani,"16,000","32,000",2%,inclusive,,,,
AR11047,2311700740,code128,Emporio Armani,"21,500","43,000",2%,inclusive,,,,
AR1400,2311400204,code128,Emporio Armani,"34,175","68,350",2%,inclusive,,,,
AR1426,2311400205,code128,Emporio Armani,"31,225","62,450",2%,inclusive,,,,
AR1443,2311300324,code128,Emporio Armani,"29,950","59,900",2%,inclusive,,,,
AR1604,2311300327,code128,Emporio Armani,"27,900","55,800",2%,inclusive,,,,
AR1636,2311300334,code128,Emporio Armani,"18,625","37,250",2%,inclusive,,,,
AR1682,2311700824,code128,Emporio Armani,"19,525","39,050",2%,inclusive,,,,
AR1686,2311300338,code128,Emporio Armani,"18,625","37,250",2%,inclusive,,,,
AR1700,2311400210,code128,Emporio Armani,"18,625","37,250",2%,inclusive,,,,
AR1713,2311300342,code128,Emporio Armani,"11,075","22,150",2%,inclusive,,,,
AR1714,2311300344,code128,Emporio Armani,"15,450","30,900",2%,inclusive,,,,
AR1740,2311300351,code128,Emporio Armani,"21,750","43,500",2%,inclusive,,,,
AR1843,2311300359,code128,Emporio Armani,"15,375","30,750",2%,inclusive,,,,
AR1894,2311700840,code128,Emporio Armani,"19,525","39,050",2%,inclusive,,,,
AR1902,2311400218,code128,Emporio Armani,"17,250","34,500",2%,inclusive,,,,
AR1910,2311400222,code128,Emporio Armani,"18,500","37,000",2%,inclusive,,,,
AR1974,2311700841,code128,Emporio Armani,"21,500","43,000",2%,inclusive,,,,
AR2447,2311000826,code128,Emporio Armani,"18,625","37,250",2%,inclusive,,,,
AR2448,2311700859,code128,Emporio Armani,"21,500","43,000",2%,inclusive,,,,
AR2458,2311700867,code128,Emporio Armani,"21,625","43,250",2%,inclusive,,,,
AR2502,2311700887,code128,Emporio Armani,"12,900","25,800",2%,inclusive,,,,
AR2513,2311000886,code128,Emporio Armani,"17,250","34,500",2%,inclusive,,,,
AR5656,2311400227,code128,Emporio Armani,"15,200","30,400",2%,inclusive,,,,
AR5728,2311400228,code128,Emporio Armani,"10,200","20,400",2%,inclusive,,,,
AR5755,2311400229,code128,Emporio Armani,"12,500","25,000",2%,inclusive,,,,
AR5832,2311400231,code128,Emporio Armani,"11,000","22,000",2%,inclusive,,,,
AR5994,2311000906,code128,Emporio Armani,"18,625","37,250",2%,inclusive,,,,
AR6043,2311400235,code128,Emporio Armani,"21,750","43,500",2%,inclusive,,,,
AR6061,2311300414,code128,Emporio Armani,"21,625","43,250",2%,inclusive,,,,
AR6062,2311400236,code128,Emporio Armani,"21,625","43,250",2%,inclusive,,,,
AR6079,2311201205,code128,Emporio Armani,"15,375","30,750",2%,inclusive,,,,
AR6082,2311300419,code128,Emporio Armani,"18,500","37,000",2%,inclusive,,,,
AR6085,2311300422,code128,Emporio Armani,"18,500","37,000",2%,inclusive,,,,
AR6097,2311201215,code128,Emporio Armani,"21,625","43,250",2%,inclusive,,,,
AR6097,2311300425,code128,Emporio Armani,"21,625","43,250",2%,inclusive,,,,
AR7411,2311300431,code128,Emporio Armani,"18,500","37,000",2%,inclusive,,,,
AR80004,2311400247,code128,Emporio Armani,"12,225","24,450",2%,inclusive,,,,
AR80014,2311700901,code128,Emporio Armani,"26,125","52,250",2%,inclusive,,,,
AR80016,2311700908,code128,Emporio Armani,"18,200","36,400",2%,inclusive,,,,
AR8007,2311500013,code128,Emporio Armani,"15,200","30,400",2%,inclusive,,,,
AR9040 Set,2311700738,code128,Emporio Armani,"24,775","49,550",2%,inclusive,,,,
AR11068,2311700744,code128,Emporio Armani,"14,900","29,800",2%,inclusive,,,,
AR11081,2311700751,code128,Emporio Armani,"21,500","43,000",2%,inclusive,,,,
AR11082,2311700755,code128,Emporio Armani,"21,500","43,000",2%,inclusive,,,,
AR11085,2311700764,code128,Emporio Armani,"16,225","32,450",2%,inclusive,,,,
AR11092,2311700772,code128,Emporio Armani,"22,825","45,650",2%,inclusive,,,,
AR11097,2311700780,code128,Emporio Armani,"12,900","25,800",2%,inclusive,,,,
AR11100,2311700784,code128,Emporio Armani,"16,225","32,450",2%,inclusive,,,,
AR11104,2311700794,code128,Emporio Armani,"21,500","43,000",2%,inclusive,,,,
AR11106,2311700795,code128,Emporio Armani,"21,500","43,000",2%,inclusive,,,,
AR11115,2311700805,code128,Emporio Armani,"24,800","49,600",2%,inclusive,,,,
AR1683,2311700328,code128,Emporio Armani,"22,825","45,650",2%,inclusive,,,,
AR1840,2311700831,code128,Emporio Armani,"22,825","45,650",2%,inclusive,,,,
AR2477,2311700877,code128,Emporio Armani,"16,225","32,450",2%,inclusive,,,,
AR2499,2311700883,code128,Emporio Armani,"14,900","29,800",2%,inclusive,,,,
F16844/4,2311700857,code128,FESTINA,"11,650","23,300",2%,inclusive,,,,
820015,2311201257,code128,FERRARI,"15,375","30,750",2%,inclusive,,,,
820016,2311201258,code128,FERRARI,"18,500","37,000",2%,inclusive,,,,
830023,2311400250,code128,FERRARI,"19,750","39,500",2%,inclusive,,,,
830025,2311201259,code128,FERRARI,"19,750","39,500",2%,inclusive,,,,
830077,2311400253,code128,FERRARI,"19,750","39,500",2%,inclusive,,,,
830078,2311400254,code128,FERRARI,"19,750","39,500",2%,inclusive,,,,
830139,2311201260,code128,FERRARI,"22,900","45,800",2%,inclusive,,,,
830174,2311700734,code128,FERRARI,"19,750","39,500",2%,inclusive,,,,
830204,2311400262,code128,FERRARI,"12,850","25,700",2%,inclusive,,,,
830223,2311400267,code128,FERRARI,"17,250","34,500",2%,inclusive,,,,
830224,2311201262,code128,FERRARI,"17,250","34,500",2%,inclusive,,,,
830260,2311400270,code128,FERRARI,"18,500","37,000",2%,inclusive,,,,
830262,2311300445,code128,FERRARI,"18,500","37,000",2%,inclusive,,,,
830270,2311201267,code128,FERRARI,"21,625","43,250",2%,inclusive,,,,
830272,2311201268,code128,FERRARI,"18,500","37,000",2%,inclusive,,,,
830303,2311400276,code128,FERRARI,"24,775","49,550",2%,inclusive,,,,
830306,2311400280,code128,FERRARI,"12,225","24,450",2%,inclusive,,,,
830307,2311400281,code128,FERRARI,"12,225","24,450",2%,inclusive,,,,
830310,2311400284,code128,FERRARI,"15,375","30,750",2%,inclusive,,,,
830320,2311700736,code128,FERRARI,"23,525","47,050",2%,inclusive,,,,
830330,2311400291,code128,FERRARI,"14,125","28,250",2%,inclusive,,,,
F16170/A,2311700825,code128,FESTINA,"8,200","16,400",2%,inclusive,,,,
F16242/A,2311700826,code128,FESTINA,"8,200","16,400",2%,inclusive,,,,
F16458/3,2311700829,code128,FESTINA,"8,200","16,400",2%,inclusive,,,,
F16460/2,2311700830,code128,FESTINA,"8,200","16,400",2%,inclusive,,,,
F16488/5,2311700833,code128,FESTINA,"14,800","29,600",2%,inclusive,,,,
F16488/B,2311700834,code128,FESTINA,"14,800","29,600",2%,inclusive,,,,
F16495/2,2311700837,code128,FESTINA,"8,200","16,400",2%,inclusive,,,,
F16495/A,2311700838,code128,FESTINA,"8,200","16,400",2%,inclusive,,,,
F16761/2,2311700849,code128,FESTINA,"14,800","29,600",2%,inclusive,,,,
F16819/1,2311700842,code128,FESTINA,"16,450","32,900",2%,inclusive,,,,
F16822/1,2311700845,code128,FESTINA,"10,675","21,350",2%,inclusive,,,,
F16822/2,2311700846,code128,FESTINA,"10,675","21,350",2%,inclusive,,,,
F16826/3,2311700850,code128,FESTINA,"11,500","23,000",2%,inclusive,,,,
F16828/3,2311700854,code128,FESTINA,"11,500","23,000",2%,inclusive,,,,
F16871/4,2311700861,code128,FESTINA,"10,675","21,350",2%,inclusive,,,,
F16874/1,2311700862,code128,FESTINA,"13,975","27,950",2%,inclusive,,,,
F16876/2,2311700865,code128,FESTINA,"12,325","24,650",2%,inclusive,,,,
F16876/3,2311700866,code128,FESTINA,"12,325","24,650",2%,inclusive,,,,
F16981/4,2311700870,code128,FESTINA,"9,850","19,700",2%,inclusive,,,,
F16989/1,2311700873,code128,FESTINA,"13,150","26,300",2%,inclusive,,,,
F16990/2,2311700877,code128,FESTINA,"12,325","24,650",2%,inclusive,,,,
F20200/2,2311700881,code128,FESTINA,"16,450","32,900",2%,inclusive,,,,
F20200/3,2311700878,code128,FESTINA,"16,450","32,900",2%,inclusive,,,,
F20271/2,2311700882,code128,FESTINA,"13,150","26,300",2%,inclusive,,,,
F20271/3,2311700885,code128,FESTINA,"13,150","26,300",2%,inclusive,,,,
F20276/2,2311700886,code128,FESTINA,"10,675","21,350",2%,inclusive,,,,
F20276/3,2311700889,code128,FESTINA,"10,675","21,350",2%,inclusive,,,,
F20285/1,2311700893,code128,FESTINA,"11,500","23,000",2%,inclusive,,,,
F6842/4,2311700898,code128,FESTINA,"14,800","29,600",2%,inclusive,,,,
F6852/2,2311700907,code128,FESTINA,"13,975","27,950",2%,inclusive,,,,
F6852/3,2311700909,code128,FESTINA,"13,975","27,950",2%,inclusive,,,,
F6864/3,2311700911,code128,FESTINA,"13,150","26,300",2%,inclusive,,,,
F6864/6,2311700913,code128,FESTINA,"13,150","26,300",2%,inclusive,,,,
FS5391,2311201799,code128,FOSSIL,"7,625","15,250",2%,inclusive,,,,
FS5391,2311701059,code128,FOSSIL,"7,625","15,250",2%,inclusive,,,,
AM4483,2311300453,code128,FOSSIL,"10,350","20,700",2%,inclusive,,,,
AM4522,2311400295,code128,FOSSIL,"8,475","16,950",2%,inclusive,,,,
AM4632,2311400296,code128,FOSSIL,"10,975","21,950",2%,inclusive,,,,
CE1010-N,2311300455,code128,FOSSIL,"14,000","28,000",2%,inclusive,,,,
CH3016,2311300459,code128,FOSSIL,"9,100","18,200",2%,inclusive,,,,
ES1987,2311300463,code128,FOSSIL,"5,150","10,300",2%,inclusive,,,,
ES1988,2311300464,code128,FOSSIL,"6,000","12,000",2%,inclusive,,,,
ES2059,2311300468,code128,FOSSIL,"4,700","9,400",2%,inclusive,,,,
ES3060,23110011115,code128,FOSSIL,"6,600","13,200",2%,inclusive,,,,
ES3203,2311700912,code128,FOSSIL,"8,950","17,900",2%,inclusive,,,,
ES3204,2311700916,code128,FOSSIL,"8,275","16,550",2%,inclusive,,,,
ES3358,2311001166,code128,FOSSIL,"7,225","14,450",2%,inclusive,,,,
ES3433,2311201370,code128,FOSSIL,"7,225","14,450",2%,inclusive,,,,
ES3434,2311700932,code128,FOSSIL,"8,950","17,900",2%,inclusive,,,,
ES3435,2311700940,code128,FOSSIL,"8,475","16,950",2%,inclusive,,,,
ES3451,2311300479,code128,FOSSIL,"8,475","16,950",2%,inclusive,,,,
ES3467,2311300483,code128,FOSSIL,"6,000","12,000",2%,inclusive,,,,
ES3477,2311400310,code128,FOSSIL,"7,250","14,500",2%,inclusive,,,,
ES3487,2311201395,code128,FOSSIL,"7,225","14,450",2%,inclusive,,,,
ES3523,2311201410,code128,FOSSIL,"7,225","14,450",2%,inclusive,,,,
ES3546,2311700942,code128,FOSSIL,"10,250","20,500",2%,inclusive,,,,
ES3579,2311400311,code128,FOSSIL,"7,850","15,700",2%,inclusive,,,,
ES3590,2311700948,code128,FOSSIL,"8,950","17,900",2%,inclusive,,,,
ES3713,2311700952,code128,FOSSIL,"9,600","19,200",2%,inclusive,,,,
ES3737,2311300487,code128,FOSSIL,"7,225","14,450",2%,inclusive,,,,
ES3745,2311700958,code128,FOSSIL,"8,275","16,550",2%,inclusive,,,,
ES3750,2311300488,code128,FOSSIL,"7,850","15,700",2%,inclusive,,,,
ES3838,2311001262,code128,FOSSIL,"8,475","16,950",2%,inclusive,,,,
ES3843,2311400316,code128,FOSSIL,"7,225","14,450",2%,inclusive,,,,
ES3880,2311300496,code128,FOSSIL,"9,725","19,450",2%,inclusive,,,,
ES3890,2311400318,code128,FOSSIL,"10,350","20,700",2%,inclusive,,,,
ES3908,2311201499,code128,FOSSIL,"5,975","11,950",2%,inclusive,,,,
ES3916,2311300503,code128,FOSSIL,"10,975","21,950",2%,inclusive,,,,
ES3939,2311001312,code128,FOSSIL,"10,350","20,700",2%,inclusive,,,,
ES3956,2311300507,code128,FOSSIL,"7,850","15,700",2%,inclusive,,,,
ES3969,2311400325,code128,FOSSIL,"7,225","14,450",2%,inclusive,,,,
ES3986,2311500021,code128,FOSSIL,"5,975","11,950",2%,inclusive,,,,
ES4040,2311001321,code128,FOSSIL,"9,100","18,200",2%,inclusive,,,,
ES4083,2311201465,code128,FOSSIL,"7,850","15,700",2%,inclusive,,,,
ES4092,2311201468,code128,FOSSIL,"8,475","16,950",2%,inclusive,,,,
ES4099,2311001359,code128,FOSSIL,"8,475","16,950",2%,inclusive,,,,
ES4253,2311201504,code128,FOSSIL,"5,275","10,550",2%,inclusive,,,,
ES4254,2311300520,code128,FOSSIL,"7,225","14,450",2%,inclusive,,,,
ES4259,2311001419,code128,FOSSIL,"10,350","20,700",2%,inclusive,,,,
ES4260,2311001437,code128,FOSSIL,"8,475","16,950",2%,inclusive,,,,
ES4268,2311300525,code128,FOSSIL,"7,225","14,450",2%,inclusive,,,,
ES4269,2311300526,code128,FOSSIL,"8,475","16,950",2%,inclusive,,,,
ES4275,2311001468,code128,FOSSIL,"9,725","19,450",2%,inclusive,,,,
ES4277,2311201603,code128,FOSSIL,"6,375","12,750",2%,inclusive,,,,
ES4284,2311201617,code128,FOSSIL,"11,600","23,200",2%,inclusive,,,,
ES4288,2311201640,code128,FOSSIL,"8,475","16,950",2%,inclusive,,,,
ES4298,2311201662,code128,FOSSIL,"8,600","17,200",2%,inclusive,,,,
ES4300,2311300535,code128,FOSSIL,"10,350","20,700",2%,inclusive,,,,
ES4321,2311201700,code128,FOSSIL,"9,150","18,300",2%,inclusive,,,,
ES4326,2311201719,code128,FOSSIL,"7,475","14,950",2%,inclusive,,,,
ES4383,2311700972,code128,FOSSIL,"8,950","17,900",2%,inclusive,,,,
FS4991,2311700987,code128,FOSSIL,"8,950","17,900",2%,inclusive,,,,
FS5049,2311400330,code128,FOSSIL,"9,725","19,450",2%,inclusive,,,,
FS5305,2311701027,code128,FOSSIL,"7,625","15,250",2%,inclusive,,,,
FS5445,2311701076,code128,FOSSIL,"8,275","16,550",2%,inclusive,,,,
ES3077,2311201349,code128,FOSSIL,"6,600","13,200",2%,inclusive,,,,
1YRU0009,2311400358,code128,KATE,"14,125","28,250",2%,inclusive,,,,
1YRU0125,2311400359,code128,KATE,"12,225","24,450",2%,inclusive,,,,
1YRU0456,2311400363,code128,KATE,"10,975","21,950",2%,inclusive,,,,
1YRU0811,2311400368,code128,KATE,"12,225","24,450",2%,inclusive,,,,
KSW1022,2311400379,code128,KATE,"12,225","24,450",2%,inclusive,,,,
KSW1050,2311400385,code128,KATE,"14,125","28,250",2%,inclusive,,,,
KSW1073,2311400389,code128,KATE,"14,125","28,250",2%,inclusive,,,,
KSW1252,2311700741,code128,KATE,"12,225","24,450",2%,inclusive,,,,
KSW1267,2311700742,code128,KATE,"12,225","24,450",2%,inclusive,,,,
KSW1268,2311700743,code128,KATE,"12,225","24,450",2%,inclusive,,,,
KSW1269,2311700744,code128,KATE,"10,975","21,950",2%,inclusive,,,,
KSW1282,2311700745,code128,KATE,"10,975","21,950",2%,inclusive,,,,
L1945,2311400395,code128,LUMINOC,"50,025","100,050",2%,inclusive,,,,
L3089,2311400397,code128,LUMINOC,"26,738","53,475",2%,inclusive,,,,
L3152.BO,2311201930,code128,LUMINOC,"32,775","65,550",2%,inclusive,,,,
L3903,2311400399,code128,LUMINOC,"11,500","23,000",2%,inclusive,,,,
L3905,2311400400,code128,LUMINOC,"11,500","23,000",2%,inclusive,,,,
L3917,2311400401,code128,LUMINOC,"11,500","23,000",2%,inclusive,,,,
L6251,2311400403,code128,LUMINOC,"35,075","70,150",2%,inclusive,,,,
L6252,2311400404,code128,LUMINOC,"42,263","84,525",2%,inclusive,,,,
L6402,2311400407,code128,LUMINOC,"60,950","121,900",2%,inclusive,,,,
L6501,2311400409,code128,LUMINOC,"60,375","120,750",2%,inclusive,,,,
Marc Jacob1150,2311500029,code128,Marc Jacob,"11,025","22,050",2%,inclusive,,,,
Marc Jacob1154,2311400419,code128,Marc Jacob,"11,025","22,050",2%,inclusive,,,,
Marc Jacob1180,2311700770,code128,Marc Jacob,"11,050","22,100",2%,inclusive,,,,
Marc Jacob1200,2311300562,code128,Marc Jacob,"11,025","22,050",2%,inclusive,,,,
Marc Jacob1201,2311700771,code128,Marc Jacob,"12,600","25,200",2%,inclusive,,,,
Marc Jacob1205,2311300565,code128,Marc Jacob,"11,025","22,050",2%,inclusive,,,,
Marc Jacob1218,2311300566,code128,Marc Jacob,"12,600","25,200",2%,inclusive,,,,
Marc Jacob1219,2311300569,code128,Marc Jacob,"12,600","25,200",2%,inclusive,,,,
Marc Jacob1225,2311300570,code128,Marc Jacob,"11,025","22,050",2%,inclusive,,,,
Marc Jacob1227,2311300572,code128,Marc Jacob,"11,025","22,050",2%,inclusive,,,,
Marc Jacob1234,2311300573,code128,Marc Jacob,"9,450","18,900",2%,inclusive,,,,
Marc Jacob1240,2311300574,code128,Marc Jacob,"9,450","18,900",2%,inclusive,,,,
Marc Jacob1245,2311300575,code128,Marc Jacob,"12,600","25,200",2%,inclusive,,,,
Marc Jacob1251,2311400422,code128,Marc Jacob,"9,450","18,900",2%,inclusive,,,,
Marc Jacob1265,2311700776,code128,Marc Jacob,"9,450","18,900",2%,inclusive,,,,
Marc Jacob1269,2311700777,code128,Marc Jacob,"11,025","22,050",2%,inclusive,,,,
Marc Jacob1270,2311700778,code128,Marc Jacob,"9,450","18,900",2%,inclusive,,,,
Marc Jacob1273,2311300585,code128,Marc Jacob,"11,025","22,050",2%,inclusive,,,,
Marc Jacob1276,2311700780,code128,Marc Jacob,"12,600","25,200",2%,inclusive,,,,
Marc Jacob1284,2311300586,code128,Marc Jacob,"11,025","22,050",2%,inclusive,,,,
Marc Jacob1308,2311300589,code128,Marc Jacob,"14,175","28,350",2%,inclusive,,,,
Marc Jacob1309,2311300590,code128,Marc Jacob,"14,175","28,350",2%,inclusive,,,,
Marc Jacob1310,2311700783,code128,Marc Jacob,"11,025","22,050",2%,inclusive,,,,
Marc Jacob1317,2311300593,code128,Marc Jacob,"11,025","22,050",2%,inclusive,,,,
Marc Jacob1318,2311201942,code128,Marc Jacob,"11,025","22,050",2%,inclusive,,,,
Marc Jacob1356,2311300594,code128,Marc Jacob,"10,975","21,950",2%,inclusive,,,,
Marc Jacob1366,2311300597,code128,Marc Jacob,"10,975","21,950",2%,inclusive,,,,
Marc Jacob2547,2311300603,code128,Marc Jacob,"22,050","44,100",2%,inclusive,,,,
Marc Jacob3054,2311300607,code128,Marc Jacob,"12,550","25,100",2%,inclusive,,,,
Marc Jacob3055,2311700787,code128,Marc Jacob,"11,025","22,050",2%,inclusive,,,,
Marc Jacob3078,2311201944,code128,Marc Jacob,"12,600","25,200",2%,inclusive,,,,
Marc Jacob3100,2311700789,code128,Marc Jacob,"14,175","28,350",2%,inclusive,,,,
Marc Jacob3125,2311700790,code128,Marc Jacob,"12,600","25,200",2%,inclusive,,,,
Marc Jacob3156,2311700791,code128,Marc Jacob,"18,900","37,800",2%,inclusive,,,,
Marc Jacob3194,2311201948,code128,Marc Jacob,"12,600","25,200",2%,inclusive,,,,
Marc Jacob3199,2311700793,code128,Marc Jacob,"12,600","25,200",2%,inclusive,,,,
Marc Jacob3200,2311700794,code128,Marc Jacob,"12,600","25,200",2%,inclusive,,,,
Marc Jacob3214,2311700795,code128,Marc Jacob,"11,025","22,050",2%,inclusive,,,,
Marc Jacob3217,2311300626,code128,Marc Jacob,"11,025","22,050",2%,inclusive,,,,
Marc Jacob3219,2311300629,code128,Marc Jacob,"12,600","25,200",2%,inclusive,,,,
Marc Jacob3230,2311300636,code128,Marc Jacob,"14,350","28,700",2%,inclusive,,,,
Marc Jacob3242,2311400431,code128,Marc Jacob,"11,025","22,050",2%,inclusive,,,,
Marc Jacob3258,2311300637,code128,Marc Jacob,"12,600","25,200",2%,inclusive,,,,
Marc Jacob3288,2311300640,code128,Marc Jacob,"14,175","28,350",2%,inclusive,,,,
Marc Jacob3378,2311300649,code128,Marc Jacob,"15,675","31,350",2%,inclusive,,,,
Marc Jacob3380,2311400437,code128,Marc Jacob,"18,825","37,650",2%,inclusive,,,,
Marc Jacob3382,2311300652,code128,Marc Jacob,"15,675","31,350",2%,inclusive,,,,
Marc Jacob3391,2311300658,code128,Marc Jacob,"12,550","25,100",2%,inclusive,,,,
Marc Jacob3392,2311400440,code128,Marc Jacob,"15,675","31,350",2%,inclusive,,,,
Marc Jacob3402,2311400441,code128,Marc Jacob,"15,675","31,350",2%,inclusive,,,,
Marc Jacob3407,2311300662,code128,Marc Jacob,"15,675","31,350",2%,inclusive,,,,
Marc Jacob3409,2311300665,code128,Marc Jacob,"17,250","34,500",2%,inclusive,,,,
Marc Jacob4015,2311300669,code128,Marc Jacob,"9,450","18,900",2%,inclusive,,,,
Marc Jacob4019,2311300670,code128,Marc Jacob,"9,450","18,900",2%,inclusive,,,,
Marc Jacob5032,2311400442,code128,Marc Jacob,"21,550","43,100",2%,inclusive,,,,
Marc Jacob5059,2311400451,code128,Marc Jacob,"17,325","34,650",2%,inclusive,,,,
Marc Jacob5062,2311400452,code128,Marc Jacob,"14,175","28,350",2%,inclusive,,,,
Marc Jacob5086,2311400456,code128,Marc Jacob,"15,675","31,350",2%,inclusive,,,,
Marc Jacob5088,2311300683,code128,Marc Jacob,"12,550","25,100",2%,inclusive,,,,
Marc Jacob8521,2311300686,code128,Marc Jacob,"12,600","25,200",2%,inclusive,,,,
Marc Jacob8574,2311300687,code128,Marc Jacob,"11,025","22,050",2%,inclusive,,,,
Micheal Kors2257,2311300689,code128,Micheal Kors,"8,525","17,050",2%,inclusive,,,,
Micheal Kors2280,2311001924,code128,Micheal Kors,"15,000","30,000",2%,inclusive,,,,
Micheal Kors2284,2311400464,code128,Micheal Kors,"13,825","27,650",2%,inclusive,,,,
Micheal Kors2376,2311400466,code128,Micheal Kors,"17,725","35,450",2%,inclusive,,,,
Micheal Kors2388,2311300693,code128,Micheal Kors,"17,725","35,450",2%,inclusive,,,,
Micheal Kors2391,2311300694,code128,Micheal Kors,"15,950","31,900",2%,inclusive,,,,
Micheal Kors2427,2311300697,code128,Micheal Kors,"16,500","33,000",2%,inclusive,,,,
Micheal Kors2428,2311001939,code128,Micheal Kors,"16,500","33,000",2%,inclusive,,,,
Micheal Kors2430,2311201978,code128,Micheal Kors,"16,500","33,000",2%,inclusive,,,,
Micheal Kors2433,2311300702,code128,Micheal Kors,"16,500","33,000",2%,inclusive,,,,
Micheal Kors2443,2311300703,code128,Micheal Kors,"20,375","40,750",2%,inclusive,,,,
Micheal Kors2445,2311300706,code128,Micheal Kors,"20,375","40,750",2%,inclusive,,,,
Micheal Kors2448,2311201991,code128,Micheal Kors,"17,700","35,400",2%,inclusive,,,,
Micheal Kors2463,2311300709,code128,Micheal Kors,"14,125","28,250",2%,inclusive,,,,
Micheal Kors2464,231100970,code128,Micheal Kors,"14,125","28,250",2%,inclusive,,,,
Micheal Kors2484,2311300713,code128,Micheal Kors,"12,225","24,450",2%,inclusive,,,,
Micheal Kors2521,2311001982,code128,Micheal Kors,"12,225","24,450",2%,inclusive,,,,
Micheal Kors2529,2311300715,code128,Micheal Kors,"17,250","34,500",2%,inclusive,,,,
Micheal Kors2538,2311300716,code128,Micheal Kors,"12,225","24,450",2%,inclusive,,,,
Micheal Kors2575,2311001998,code128,Micheal Kors,"12,225","24,450",2%,inclusive,,,,
Micheal Kors2584,2311300720,code128,Micheal Kors,"12,225","24,450",2%,inclusive,,,,
Micheal Kors2591,2311002006,code128,Micheal Kors,"14,125","28,250",2%,inclusive,,,,
Micheal Kors2608,2311300723,code128,Micheal Kors,"12,225","24,450",2%,inclusive,,,,
Micheal Kors2658,2311300724,code128,Micheal Kors,"12,225","24,450",2%,inclusive,,,,
Micheal Kors3254,2311300728,code128,Micheal Kors,"15,950","31,900",2%,inclusive,,,,
Micheal Kors3264,2311500031,code128,Micheal Kors,"11,700","23,400",2%,inclusive,,,,
Micheal Kors3265,2311300729,code128,Micheal Kors,"13,825","27,650",2%,inclusive,,,,
Micheal Kors3294,2311002026,code128,Micheal Kors,"11,700","23,400",2%,inclusive,,,,
Micheal Kors3304,2311400471,code128,Micheal Kors,"17,725","35,450",2%,inclusive,,,,
Micheal Kors3317,2311300736,code128,Micheal Kors,"13,825","27,650",2%,inclusive,,,,
Micheal Kors3355,2311300739,code128,Micheal Kors,"19,500","39,000",2%,inclusive,,,,
Micheal Kors3404,2311400474,code128,Micheal Kors,"16,500","33,000",2%,inclusive,,,,
Micheal Kors3494,2311300751,code128,Micheal Kors,"12,225","24,450",2%,inclusive,,,,
Micheal Kors3519,2311300752,code128,Micheal Kors,"14,125","28,250",2%,inclusive,,,,
Micheal Kors4269,2311202148,code128,Micheal Kors,"15,000","30,000",2%,inclusive,,,,
Micheal Kors4284,2311300765,code128,Micheal Kors,"15,950","31,900",2%,inclusive,,,,
Micheal Kors4285,2311300769,code128,Micheal Kors,"15,950","31,900",2%,inclusive,,,,
Micheal Kors4295,2311300773,code128,Micheal Kors,"15,950","31,900",2%,inclusive,,,,
Micheal Kors4325,2311400481,code128,Micheal Kors,"18,500","37,000",2%,inclusive,,,,
Micheal Kors5038,2311300774,code128,Micheal Kors,"15,950","31,900",2%,inclusive,,,,
Micheal Kors5076,2311002158,code128,Micheal Kors,"17,725","35,450",2%,inclusive,,,,
Micheal Kors5145,2311300779,code128,Micheal Kors,"19,500","39,000",2%,inclusive,,,,
Micheal Kors5161,2311400483,code128,Micheal Kors,"24,800","49,600",2%,inclusive,,,,
Micheal Kors5165,2311300782,code128,Micheal Kors,"19,500","39,000",2%,inclusive,,,,
Micheal Kors5538,2311002183,code128,Micheal Kors,"17,700","35,400",2%,inclusive,,,,
Micheal Kors5660,2311300789,code128,Micheal Kors,"17,725","35,450",2%,inclusive,,,,
Micheal Kors5722,2311002190,code128,Micheal Kors,"19,500","39,000",2%,inclusive,,,,
Micheal Kors5841,2311002194,code128,Micheal Kors,"20,925","41,850",2%,inclusive,,,,
Micheal Kors5866,2311202203,code128,Micheal Kors,"19,500","39,000",2%,inclusive,,,,
Micheal Kors5867,2311400487,code128,Micheal Kors,"19,500","39,000",2%,inclusive,,,,
Micheal Kors5873,2311400488,code128,Micheal Kors,"23,050","46,100",2%,inclusive,,,,
Micheal Kors5905,2311300801,code128,Micheal Kors,"20,925","41,850",2%,inclusive,,,,
Micheal Kors5913,2311300802,code128,Micheal Kors,"15,950","31,900",2%,inclusive,,,,
Micheal Kors5915,2311300803,code128,Micheal Kors,"15,950","31,900",2%,inclusive,,,,
Micheal Kors5970,2311400491,code128,Micheal Kors,"19,500","39,000",2%,inclusive,,,,
Micheal Kors6087,2311400494,code128,Micheal Kors,"24,800","49,600",2%,inclusive,,,,
Micheal Kors6119,2311400495,code128,Micheal Kors,"17,725","35,450",2%,inclusive,,,,
Micheal Kors6133,2311300816,code128,Micheal Kors,"19,500","39,000",2%,inclusive,,,,
Micheal Kors6137,2311300820,code128,Micheal Kors,"20,925","41,850",2%,inclusive,,,,
Micheal Kors6140,2311400496,code128,Micheal Kors,"19,500","39,000",2%,inclusive,,,,
Micheal Kors6143,2311400497,code128,Micheal Kors,"17,725","35,450",2%,inclusive,,,,
Micheal Kors6151,2311300821,code128,Micheal Kors,"19,500","39,000",2%,inclusive,,,,
Micheal Kors6186,2311202217,code128,Micheal Kors,"23,700","47,400",2%,inclusive,,,,
Micheal Kors6238,2311400500,code128,Micheal Kors,"17,725","35,450",2%,inclusive,,,,
Micheal Kors6276,2311202232,code128,Micheal Kors,"17,700","35,400",2%,inclusive,,,,
Micheal Kors6278,2311300835,code128,Micheal Kors,"17,250","34,500",2%,inclusive,,,,
Micheal Kors6280,2311300836,code128,Micheal Kors,"16,500","33,000",2%,inclusive,,,,
Micheal Kors6281,2311300839,code128,Micheal Kors,"27,000","54,000",2%,inclusive,,,,
Micheal Kors6282,2311002284,code128,Micheal Kors,"20,375","40,750",2%,inclusive,,,,
Micheal Kors6436,2311300846,code128,Micheal Kors,"23,525","47,050",2%,inclusive,,,,
Micheal Kors6467,2311300847,code128,Micheal Kors,"17,250","34,500",2%,inclusive,,,,
Micheal Kors6471,2311202261,code128,Micheal Kors,"15,675","31,350",2%,inclusive,,,,
Micheal Kors8157,2311300857,code128,Micheal Kors,"16,500","33,000",2%,inclusive,,,,
Micheal Kors8288,2311300858,code128,Micheal Kors,"15,950","31,900",2%,inclusive,,,,
Micheal Kors8310,2311202270,code128,Micheal Kors,"13,825","27,650",2%,inclusive,,,,
Micheal Kors8386,2311300865,code128,Micheal Kors,"19,500","39,000",2%,inclusive,,,,
Micheal Kors8441,2311002359,code128,Micheal Kors,"15,000","30,000",2%,inclusive,,,,
Micheal Kors8442,2311002366,code128,Micheal Kors,"15,000","30,000",2%,inclusive,,,,
Micheal Kors8456,2311400511,code128,Micheal Kors,"15,000","30,000",2%,inclusive,,,,
Micheal Kors8473,2311202286,code128,Micheal Kors,"18,500","37,000",2%,inclusive,,,,
Micheal Kors8529,2311300880,code128,Micheal Kors,"20,375","40,750",2%,inclusive,,,,
Micheal Kors8531,2311002395,code128,Micheal Kors,"12,225","24,450",2%,inclusive,,,,
Micheal Kors3837,2311701087,code128,Micheal Kors,"14,900","29,800",2%,inclusive,,,,
Micheal Kors3858,2311701092,code128,Micheal Kors,"18,200","36,400",2%,inclusive,,,,
Micheal Kors3876,2311701099,code128,Micheal Kors,"18,200","36,400",2%,inclusive,,,,
Micheal Kors6563,2311701107,code128,Micheal Kors,"14,900","29,800",2%,inclusive,,,,
Micheal Kors2696,2311202025,code128,Micheal Kors,"10,800","21,600",2%,inclusive,,,,
Micheal Kors3775,2311202124,code128,Micheal Kors,"19,375","38,750",2%,inclusive,,,,
Micheal Kors3794,2311202143,code128,Micheal Kors,"12,475","24,950",2%,inclusive,,,,
PL.12744JRSQBZ/12M,2311202299,code128,POLICE,"11,850","23,700",2%,inclusive,,,,
PL.13400JS/02,2311300894,code128,POLICE,"12,475","24,950",2%,inclusive,,,,
PL.13400JSB/02,2311300897,code128,POLICE,"14,375","28,750",2%,inclusive,,,,
PL.13595JSB/13,2311300911,code128,POLICE,"20,625","41,250",2%,inclusive,,,,
PL.13600JS/04,2311300914,code128,POLICE,"10,600","21,200",2%,inclusive,,,,
PL.13695JSB/02MA,2311300916,code128,POLICE,"8,625","17,250",2%,inclusive,,,,
PL.13695JSB/02MB,2311300919,code128,POLICE,"14,375","28,750",2%,inclusive,,,,
PL.13754JSB/02M,2311300921,code128,POLICE,"12,475","24,950",2%,inclusive,,,,
PL.13754JSRB/02M,2311500034,code128,POLICE,"12,475","24,950",2%,inclusive,,,,
PL.13828JS/01MA,2311202307,code128,POLICE,"8,725","17,450",2%,inclusive,,,,
PL.13828JS/04,2311202314,code128,POLICE,"7,475","14,950",2%,inclusive,,,,
PL.13828JSBU/13,2311300931,code128,POLICE,"8,100","16,200",2%,inclusive,,,,
PL.13836JS/04M,2311300933,code128,POLICE,"5,985","11,970",2%,inclusive,,,,
PL.13836JSB/61M,2311202316,code128,POLICE,"11,850","23,700",2%,inclusive,,,,
PL.13864JPBLU/61,2311300942,code128,POLICE,"8,100","16,200",2%,inclusive,,,,
PL.13864JPBS/02,2311202320,code128,POLICE,"8,100","16,200",2%,inclusive,,,,
PL.13876JS/04M,2311300947,code128,POLICE,"5,610","11,220",2%,inclusive,,,,
PL.13889JPBS/04,2311300951,code128,POLICE,"8,100","16,200",2%,inclusive,,,,
PL.13890JPBS/02,2311202324,code128,POLICE,"4,975","9,950",2%,inclusive,,,,
PL.13890JPGYB/02,2311202326,code128,POLICE,"4,975","9,950",2%,inclusive,,,,
PL.13891JSU/61,2311300959,code128,POLICE,"11,225","22,450",2%,inclusive,,,,
PL.13893JS/02M,2311300961,code128,POLICE,"9,350","18,700",2%,inclusive,,,,
PL.13893JS/02MA,2311300962,code128,POLICE,"5,600","11,200",2%,inclusive,,,,
PL.13893JS/02MB,2311300963,code128,POLICE,"9,350","18,700",2%,inclusive,,,,
PL.13893JSSB/02M,2311300967,code128,POLICE,"9,350","18,700",2%,inclusive,,,,
PL.13894JS/04MB,2311300968,code128,POLICE,"11,850","23,700",2%,inclusive,,,,
PL.13895JS/04,2311300972,code128,POLICE,"9,975","19,950",2%,inclusive,,,,
PL.13896JSU/61,2311400521,code128,POLICE,"10,600","21,200",2%,inclusive,,,,
PL.13928JSB/12,2311202332,code128,POLICE,"15,000","30,000",2%,inclusive,,,,
PL.13967JSB/04M,2311300981,code128,POLICE,"14,375","28,750",2%,inclusive,,,,
PL.14014JS/02M,2311202335,code128,POLICE,"5,250","10,500",2%,inclusive,,,,
PL.14014JS/04MA,2311300989,code128,POLICE,"5,250","10,500",2%,inclusive,,,,
PL.14099JS/12M,2311300993,code128,POLICE,"12,475","24,950",2%,inclusive,,,,
PL.14105JSB/02,2311300999,code128,POLICE,"9,975","19,950",2%,inclusive,,,,
PL.14106JSTU/04M,2311301002,code128,POLICE,"12,475","24,950",2%,inclusive,,,,
PL.14106JSU/61M,2311400528,code128,POLICE,"15,000","30,000",2%,inclusive,,,,
PL.14141JS/03M,2311301003,code128,POLICE,"13,750","27,500",2%,inclusive,,,,
PL.14177JSB/02,2311301006,code128,POLICE,"6,735","13,470",2%,inclusive,,,,
PL.14197JSBU/02,2311202343,code128,POLICE,"8,725","17,450",2%,inclusive,,,,
PL.14197JSR/02,2311202344,code128,POLICE,"8,725","17,450",2%,inclusive,,,,
PL.14338JS/04,2311301014,code128,POLICE,"13,750","27,500",2%,inclusive,,,,
PL.14338JSBL/61,2311301017,code128,POLICE,"15,000","30,000",2%,inclusive,,,,
PL.14338JSBR/02,2311301018,code128,POLICE,"15,000","30,000",2%,inclusive,,,,
PL.14377JSU/12,2311202357,code128,POLICE,"11,850","23,700",2%,inclusive,,,,
PL.14384JS/04,2311202359,code128,POLICE,"7,475","14,950",2%,inclusive,,,,
SAS037J1,2311700746,code128,SEIKO,"168,625","337,250",2%,inclusive,,,,
SGEE21P1,2311400533,code128,SEIKO,"11,650","23,300",2%,inclusive,,,,
SGEH51P1,2311700917,code128,SEIKO,"12,800","25,600",2%,inclusive,,,,
SKA896P1,2311301029,code128,SEIKO,"27,000","54,000",2%,inclusive,,,,
SKA897P1,2311301030,code128,SEIKO,"20,825","41,650",2%,inclusive,,,,
SKA899P1,2311301033,code128,SEIKO,"25,275","50,550",2%,inclusive,,,,
SKZ261K1,2311301036,code128,SEIKO,"21,900","43,800",2%,inclusive,,,,
SNAA93P1,2311400543,code128,SEIKO,"33,475","66,950",2%,inclusive,,,,
SNAA93P2,2311301038,code128,SEIKO,"27,925","55,850",2%,inclusive,,,,
SNAC01P1,2311301041,code128,SEIKO,"17,900","35,800",2%,inclusive,,,,
SNAD23P2,2311301042,code128,SEIKO,"30,875","61,750",2%,inclusive,,,,
SNDY27P1,2311400549,code128,SEIKO,"23,775","47,550",2%,inclusive,,,,
SNK369K1,2311301046,code128,SEIKO,"6,725","13,450",2%,inclusive,,,,
SNK375K1,2311400550,code128,SEIKO,"6,725","13,450",2%,inclusive,,,,
SNK601K1,2311202365,code128,SEIKO,"6,725","13,450",2%,inclusive,,,,
SNK617K1,2311002578,code128,SEIKO,"6,725","13,450",2%,inclusive,,,,
SNK797K1,2311202387,code128,SEIKO,"6,725","13,450",2%,inclusive,,,,
SNKE49K1,2311202391,code128,SEIKO,"6,725","13,450",2%,inclusive,,,,
SNKK81K1,2311002639,code128,SEIKO,"6,725","13,450",2%,inclusive,,,,
SNKL51K1,2311202427,code128,SEIKO,"5,900","11,800",2%,inclusive,,,,
SNKL59K1,2311002267,code128,SEIKO,"5,900","11,800",2%,inclusive,,,,
SNKL66K1,2311202446,code128,SEIKO,"8,575","17,150",2%,inclusive,,,,
SNKL74K1,2311202463,code128,SEIKO,"8,575","17,150",2%,inclusive,,,,
SNKL89K1,2311400553,code128,SEIKO,"6,725","13,450",2%,inclusive,,,,
SNP011P2,2311400559,code128,SEIKO,"34,475","68,950",2%,inclusive,,,,
SNP021P1,2311400560,code128,SEIKO,"42,525","85,050",2%,inclusive,,,,
SNP022P1,2311301086,code128,SEIKO,"44,775","89,550",2%,inclusive,,,,
SPC009P1,2311301087,code128,SEIKO,"34,925","69,850",2%,inclusive,,,,
SPC039P1,2311400566,code128,SEIKO,"34,925","69,850",2%,inclusive,,,,
SPC047P2,2311301088,code128,SEIKO,"36,425","72,850",2%,inclusive,,,,
SRG005P1,2311400567,code128,SEIKO,"56,300","112,600",2%,inclusive,,,,
SRG005P2,2311301091,code128,SEIKO,"53,600","107,200",2%,inclusive,,,,
SRH003P1,2311400569,code128,SEIKO,"53,650","107,300",2%,inclusive,,,,
SRLZ88P1,2311400570,code128,SEIKO,"17,225","34,450",2%,inclusive,,,,
SRLZ90P1,2311301093,code128,SEIKO,"16,700","33,400",2%,inclusive,,,,
SRN003P1,2311400572,code128,SEIKO,"30,950","61,900",2%,inclusive,,,,
SRN004P1,2311400573,code128,SEIKO,"33,200","66,400",2%,inclusive,,,,
SRN007P1,2311400574,code128,SEIKO,"30,475","60,950",2%,inclusive,,,,
SRN009P1,2311400575,code128,SEIKO,"30,475","60,950",2%,inclusive,,,,
SRP447K1,2311400578,code128,SEIKO,"24,250","48,500",2%,inclusive,,,,
SUP881P1,2311202472,code128,SEIKO,"8,425","16,850",2%,inclusive,,,,
SUR247P1,2311701119,code128,SEIKO,"9,300","18,600",2%,inclusive,,,,
SUT119P1,2311301104,code128,SEIKO,"8,125","16,250",2%,inclusive,,,,
SUT159P1,2311301105,code128,SEIKO,"10,075","20,150",2%,inclusive,,,,
SXDA13P1,2311301110,code128,SEIKO,"9,075","18,150",2%,inclusive,,,,
SXDE57P1,2311301112,code128,SEIKO,"27,150","54,300",2%,inclusive,,,,
SXDG25P1,2311301115,code128,SEIKO,"8,275","16,550",2%,inclusive,,,,
SYM607K1,2311400583,code128,SEIKO,"7,375","14,750",2%,inclusive,,,,
SKS563P1,2311700931,code128,SEIKO,"11,350","22,700",2%,inclusive,,,,
SKS568P1,2311700938,code128,SEIKO,"11,250","22,500",2%,inclusive,,,,
SUR158P1,2311701086,code128,SEIKO,"10,000","20,000",2%,inclusive,,,,
SUR221P1,2311701094,code128,SEIKO,"7,625","15,250",2%,inclusive,,,,
SUR233P1,2311200107,code128,SEIKO,"10,925","21,850",2%,inclusive,,,,
SUR248P1,2311701133,code128,SEIKO,"10,000","20,000",2%,inclusive,,,,
233XLCLW,2311301122,code128,SKAGEN,"10,000","20,000",2%,inclusive,,,,
233XLTTM,2311301126,code128,SKAGEN,"9,725","19,450",2%,inclusive,,,,
233XSCLW,2311301129,code128,SKAGEN,"10,000","20,000",2%,inclusive,,,,
234XXLT,2311202484,code128,SKAGEN,"10,075","20,150",2%,inclusive,,,,
344LGXG,2311400585,code128,SKAGEN,"13,000","26,000",2%,inclusive,,,,
347SSX,2311400587,code128,SKAGEN,"10,000","20,000",2%,inclusive,,,,
355SSGS,2311202485,code128,SKAGEN,"7,875","15,750",2%,inclusive,,,,
456SRLT,2311301137,code128,SKAGEN,"8,475","16,950",2%,inclusive,,,,
572SBXBC,2311301144,code128,SKAGEN,"15,375","30,750",2%,inclusive,,,,
572SSXWC,2311301145,code128,SKAGEN,"15,425","30,850",2%,inclusive,,,,
817SSXC,2311301146,code128,SKAGEN,"14,500","29,000",2%,inclusive,,,,
H01SRLD,2311301147,code128,SKAGEN,"11,000","22,000",2%,inclusive,,,,
H02LSXB1,2311301151,code128,SKAGEN,"10,000","20,000",2%,inclusive,,,,
SKW2048,2311301153,code128,SKAGEN,"7,250","14,500",2%,inclusive,,,,
SKW2051,2311202500,code128,SKAGEN,"8,500","17,000",2%,inclusive,,,,
SKW2066,2311301154,code128,SKAGEN,"17,325","34,650",2%,inclusive,,,,
SKW2132,2311301155,code128,SKAGEN,"7,875","15,750",2%,inclusive,,,,
SKW2136,2311301157,code128,SKAGEN,"7,225","14,450",2%,inclusive,,,,
SKW2137,2311400597,code128,SKAGEN,"7,850","15,700",2%,inclusive,,,,
SKW2141,2311400598,code128,SKAGEN,"9,100","18,200",2%,inclusive,,,,
SKW2214,2311202503,code128,SKAGEN,"8,475","16,950",2%,inclusive,,,,
SKW2232,2311301165,code128,SKAGEN,"7,225","14,450",2%,inclusive,,,,
SKW2261,2311301166,code128,SKAGEN,"8,475","16,950",2%,inclusive,,,,
SKW2262,2311301168,code128,SKAGEN,"7,850","15,700",2%,inclusive,,,,
SKW2291,2311301169,code128,SKAGEN,"8,475","16,950",2%,inclusive,,,,
SKW2292,2311301172,code128,SKAGEN,"9,725","19,450",2%,inclusive,,,,
SKW2300,2311301173,code128,SKAGEN,"14,750","29,500",2%,inclusive,,,,
SKW2303,2311202509,code128,SKAGEN,"14,750","29,500",2%,inclusive,,,,
SKW2326,2311400604,code128,SKAGEN,"7,850","15,700",2%,inclusive,,,,
SKW2327,2311400605,code128,SKAGEN,"12,225","24,450",2%,inclusive,,,,
SKW2339,2311301178,code128,SKAGEN,"10,975","21,950",2%,inclusive,,,,
SKW2356,2311400611,code128,SKAGEN,"11,600","23,200",2%,inclusive,,,,
SKW2358,2311202511,code128,SKAGEN,"11,600","23,200",2%,inclusive,,,,
SKW2371,2311202515,code128,SKAGEN,"14,125","28,250",2%,inclusive,,,,
SKW2372,2311301185,code128,SKAGEN,"12,225","24,450",2%,inclusive,,,,
SKW2373,2311301186,code128,SKAGEN,"14,125","28,250",2%,inclusive,,,,
SKW2625,2311202530,code128,SKAGEN,"8,600","17,200",2%,inclusive,,,,
SKW2642,2311202537,code128,SKAGEN,"8,025","16,050",2%,inclusive,,,,
SKW2663,2311202540,code128,SKAGEN,"6,925","13,850",2%,inclusive,,,,
SKW2668,2311202547,code128,SKAGEN,"5,275","10,550",2%,inclusive,,,,
SKW6190,2311700747,code128,SKAGEN,"10,975","21,950",2%,inclusive,,,,
SKW6200,2311202555,code128,SKAGEN,"11,600","23,200",2%,inclusive,,,,
SKW6231,2311202567,code128,SKAGEN,"14,125","28,250",2%,inclusive,,,,
SKW6232,2311301222,code128,SKAGEN,"9,100","18,200",2%,inclusive,,,,
SKW6369,2311202574,code128,SKAGEN,"8,600","17,200",2%,inclusive,,,,
SKW6372,2311202581,code128,SKAGEN,"9,150","18,300",2%,inclusive,,,,
SKW6376,2311202591,code128,SKAGEN,"8,600","17,200",2%,inclusive,,,,
SKW6382,2311202593,code128,SKAGEN,"9,700","19,400",2%,inclusive,,,,
SKW6390,2311202603,code128,SKAGEN,"8,600","17,200",2%,inclusive,,,,
SKW6391,2311202606,code128,SKAGEN,"8,025","16,050",2%,inclusive,,,,
SKW6395,2311202610,code128,SKAGEN,"9,150","18,300",2%,inclusive,,,,
SKW6401,2311202617,code128,SKAGEN,"7,475","14,950",2%,inclusive,,,,
SKW6412,2311202619,code128,SKAGEN,"7,475","14,950",2%,inclusive,,,,
SKW6423,2311202623,code128,SKAGEN,"8,025","16,050",2%,inclusive,,,,
SKW6427,2311202626,code128,SKAGEN,"6,925","13,850",2%,inclusive,,,,
SKW6428,2311202633,code128,SKAGEN,"7,475","14,950",2%,inclusive,,,,
TH1780623,2311301230,code128,Tommy Hilfiger Hilfiger,"8,000","16,000",2%,inclusive,,,,
TH1780637,2311301232,code128,Tommy Hilfiger Hilfiger,"7,500","15,000",2%,inclusive,,,,
TH1781141,2311301233,code128,Tommy Hilfiger Hilfiger,"8,475","16,950",2%,inclusive,,,,
TH1781204,2311301236,code128,Tommy Hilfiger Hilfiger,"11,000","22,000",2%,inclusive,,,,
TH1781253,2311400624,code128,Tommy Hilfiger Hilfiger,"11,600","23,200",2%,inclusive,,,,
TH1781341,2311301237,code128,Tommy Hilfiger Hilfiger,"8,475","16,950",2%,inclusive,,,,
TH1781343,2311400627,code128,Tommy Hilfiger Hilfiger,"9,725","19,450",2%,inclusive,,,,
TH1781344,2311301240,code128,Tommy Hilfiger Hilfiger,"8,475","16,950",2%,inclusive,,,,
TH1781356,2311301241,code128,Tommy Hilfiger Hilfiger,"8,475","16,950",2%,inclusive,,,,
TH1781358,2311301244,code128,Tommy Hilfiger Hilfiger,"8,475","16,950",2%,inclusive,,,,
TH1781384,2311301247,code128,Tommy Hilfiger Hilfiger,"8,475","16,950",2%,inclusive,,,,
TH1781385,2311301248,code128,Tommy Hilfiger Hilfiger,"8,475","16,950",2%,inclusive,,,,
TH1781393,2311400628,code128,Tommy Hilfiger Hilfiger,"11,600","23,200",2%,inclusive,,,,
TH1781396,2311202645,code128,Tommy Hilfiger Hilfiger,"9,100","18,200",2%,inclusive,,,,
TH1781422,2311301254,code128,Tommy Hilfiger Hilfiger,"6,600","13,200",2%,inclusive,,,,
TH1781429,2311301255,code128,Tommy Hilfiger Hilfiger,"8,475","16,950",2%,inclusive,,,,
TH1781445,2311400633,code128,Tommy Hilfiger Hilfiger,"9,100","18,200",2%,inclusive,,,,
TH1781499,2311400635,code128,Tommy Hilfiger Hilfiger,"8,475","16,950",2%,inclusive,,,,
TH1781525,2311400636,code128,Tommy Hilfiger Hilfiger,"12,225","24,450",2%,inclusive,,,,
TH1781605,2311400638,code128,Tommy Hilfiger Hilfiger,"9,725","19,450",2%,inclusive,,,,
TH1781606,2311400639,code128,Tommy Hilfiger Hilfiger,"11,600","23,200",2%,inclusive,,,,
TH1781611,2311400642,code128,Tommy Hilfiger Hilfiger,"12,225","24,450",2%,inclusive,,,,
TH1781699,2311400643,code128,Tommy Hilfiger Hilfiger,"9,725","19,450",2%,inclusive,,,,
TH1781735,2311400647,code128,Tommy Hilfiger Hilfiger,"10,350","20,700",2%,inclusive,,,,
TH1791314,2311400661,code128,Tommy Hilfiger Hilfiger,"8,475","16,950",2%,inclusive,,,,
CE1017,2311400665,code128,TW,"28,550","57,100",2%,inclusive,,,,
CE1018,2311400666,code128,TW,"29,650","59,300",2%,inclusive,,,,
CE3006,2311400672,code128,TW,"33,175","66,350",2%,inclusive,,,,
TW127,2311400676,code128,TW,"56,350","112,700",2%,inclusive,,,,
TW1300,2311400677,code128,TW,"24,400","48,800",2%,inclusive,,,,
TW1307,2311400685,code128,TW,"28,775","57,550",2%,inclusive,,,,
TW21,2311400689,code128,TW,"21,950","43,900",2%,inclusive,,,,
TW22,2311400690,code128,TW,"21,950","43,900",2%,inclusive,,,,
TW304,2311400695,code128,TW,"26,275","52,550",2%,inclusive,,,,
TW307,2311400696,code128,TW,"36,925","73,850",2%,inclusive,,,,
TW421,2311400700,code128,TW,"27,900","55,800",2%,inclusive,,,,
TW422,2311400701,code128,TW,"31,275","62,550",2%,inclusive,,,,
TW5R,2311400702,code128,TW,"27,450","54,900",2%,inclusive,,,,
TW706,2311400705,code128,TW,"47,575","95,150",2%,inclusive,,,,
TWA201,2311400710,code128,TW,"30,750","61,500",2%,inclusive,,,,
TWA202,2311700749,code128,TW,"35,700","71,400",2%,inclusive,,,,
TWA203,2311400711,code128,TW,"36,800","73,600",2%,inclusive,,,,
TWA961,2311400714,code128,TW,"40,050","80,100",2%,inclusive,,,,
SKW6230,2311202564,code128,SKAGEN,"12,225","24,450",2%,inclusive,,,,
,,,,,,,,,,,
,,,,,,,,,,,
,,,,,,,,,,,
,,,,,,,,,,,
,,,,,,,,,,,
,,,,,,,,,,,
,,,,,,,,,,,
,,,,,,,,,,,
,,,,,,,,,,,
,,,,,,,,,,,
,,,,,,,,,,,
,,,,,,,,,,,
,,,,,,,,,,,
,,,,,,,,,,,
,,,,,,,,,,,
,,,,,,,,,,,
,,,,,,,,,,,
,,,,,,,,,,,
,,,,,,,,,,,
,,,,,,,,,,,
,,,,,,,,,,,
,,,,,,,,,,,
,,,,,,,,,,,
,,,,,,,,,,,
,,,,,,,,,,,
,,,,,,,,,,,
,,,,,,,,,,,
,,,,,,,,,,,
,,,,,,,,,,,
,,,,,,,,,,,
,,,,,,,,,,,
,,,,,,,,,,,
,,,,,,,,,,,
,,,,,,,,,,,
,,,,,,,,,,,
,,,,,,,,,,,
,,,,,,,,,,,
,,,,,,,,,,,
,,,,,,,,,,,
,,,,,,,,,,,
,,,,,,,,,,,
,,,,,,,,,,,
,,,,,,,,,,,
,,,,,,,,,,,
,,,,,,,,,,,
,,,,,,,,,,,
,,,,,,,,,,,
,,,,,,,,,,,
,,,,,,,,,,,
,,,,,,,,,,,
,,,,,,,,,,,
,,,,,,,,,,,
,,,,,,,,,,,
,,,,,,,,,,,
,,,,,,,,,,,
,,,,,,,,,,,
,,,,,,,,,,,
,,,,,,,,,,,
,,,,,,,,,,,
,,,,,,,,,,,
,,,,,,,,,,,
,,,,,,,,,,,
,,,,,,,,,,,
,,,,,,,,,,,
,,,,,,,,,,,
,,,,,,,,,,,
,,,,,,,,,,,
,,,,,,,,,,,
,,,,,,,,,,,
,,,,,,,,,,,
,,,,,,,,,,,
,,,,,,,,,,,
,,,,,,,,,,,
,,,,,,,,,,,
,,,,,,,,,,,
,,,,,,,,,,,
,,,,,,,,,,,
,,,,,,,,,,,
,,,,,,,,,,,
,,,,,,,,,,,
,,,,,,,,,,,
,,,,,,,,,,,
,,,,,,,,,,,
,,,,,,,,,,,
,,,,,,,,,,,
,,,,,,,,,,,
,,,,,,,,,,,
,,,,,,,,,,,
,,,,,,,,,,,
,,,,,,,,,,,
,,,,,,,,,,,
,,,,,,,,,,,
,,,,,,,,,,,
,,,,,,,,,,,
,,,,,,,,,,,
,,,,,,,,,,,
,,,,,,,,,,,
,,,,,,,,,,,
,,,,,,,,,,,
,,,,,,,,,,,
,,,,,,,,,,,
,,,,,,,,,,,
,,,,,,,,,,,
,,,,,,,,,,,
,,,,,,,,,,,
,,,,,,,,,,,
,,,,,,,,,,,
,,,,,,,,,,,
,,,,,,,,,,,
,,,,,,,,,,,
,,,,,,,,,,,
,,,,,,,,,,,
,,,,,,,,,,,
,,,,,,,,,,,
,,,,,,,,,,,
,,,,,,,,,,,
,,,,,,,,,,,
,,,,,,,,,,,
,,,,,,,,,,,
,,,,,,,,,,,
,,,,,,,,,,,
,,,,,,,,,,,
,,,,,,,,,,,
,,,,,,,,,,,
,,,,,,,,,,,
,,,,,,,,,,,
,,,,,,,,,,,
,,,,,,,,,,,
,,,,,,,,,,,
,,,,,,,,,,,
,,,,,,,,,,,
,,,,,,,,,,,
,,,,,,,,,,,
,,,,,,,,,,,
,,,,,,,,,,,
,,,,,,,,,,,
,,,,,,,,,,,
,,,,,,,,,,,
,,,,,,,,,,,
,,,,,,,,,,,
,,,,,,,,,,,
,,,,,,,,,,,
,,,,,,,,,,,
,,,,,,,,,,,
,,,,,,,,,,,
,,,,,,,,,,,
,,,,,,,,,,,
,,,,,,,,,,,
,,,,,,,,,,,
,,,,,,,,,,,
,,,,,,,,,,,
,,,,,,,,,,,
,,,,,,,,,,,
,,,,,,,,,,,
,,,,,,,,,,,
,,,,,,,,,,,
,,,,,,,,,,,
,,,,,,,,,,,
,,,,,,,,,,,
,,,,,,,,,,,
,,,,,,,,,,,
,,,,,,,,,,,
,,,,,,,,,,,
,,,,,,,,,,,
,,,,,,,,,,,
,,,,,,,,,,,
,,,,,,,,,,,
,,,,,,,,,,,
,,,,,,,,,,,
,,,,,,,,,,,
,,,,,,,,,,,
,,,,,,,,,,,
,,,,,,,,,,,
,,,,,,,,,,,
,,,,,,,,,,,
,,,,,,,,,,,
,,,,,,,,,,,
,,,,,,,,,,,
,,,,,,,,,,,
,,,,,,,,,,,
,,,,,,,,,,,
,,,,,,,,,,,
,,,,,,,,,,,
,,,,,,,,,,,
,,,,,,,,,,,
,,,,,,,,,,,
,,,,,,,,,,,
,,,,,,,,,,,
,,,,,,,,,,,
,,,,,,,,,,,
,,,,,,,,,,,
,,,,,,,,,,,
,,,,,,,,,,,
,,,,,,,,,,,
,,,,,,,,,,,
,,,,,,,,,,,
,,,,,,,,,,,
,,,,,,,,,,,
,,,,,,,,,,,
,,,,,,,,,,,
,,,,,,,,,,,
,,,,,,,,,,,
,,,,,,,,,,,
,,,,,,,,,,,
,,,,,,,,,,,
,,,,,,,,,,,
,,,,,,,,,,,
,,,,,,,,,,,
,,,,,,,,,,,
,,,,,,,,,,,
,,,,,,,,,,,
,,,,,,,,,,,
,,,,,,,,,,,
,,,,,,,,,,,
,,,,,,,,,,,
,,,,,,,,,,,
,,,,,,,,,,,
,,,,,,,,,,,
,,,,,,,,,,,
,,,,,,,,,,,
,,,,,,,,,,,
,,,,,,,,,,,
,,,,,,,,,,,
,,,,,,,,,,,
,,,,,,,,,,,
,,,,,,,,,,,
,,,,,,,,,,,
,,,,,,,,,,,
,,,,,,,,,,,
,,,,,,,,,,,
,,,,,,,,,,,
,,,,,,,,,,,
,,,,,,,,,,,
,,,,,,,,,,,
,,,,,,,,,,,
,,,,,,,,,,,
,,,,,,,,,,,
,,,,,,,,,,,
,,,,,,,,,,,
,,,,,,,,,,,
,,,,,,,,,,,
,,,,,,,,,,,
,,,,,,,,,,,
,,,,,,,,,,,
,,,,,,,,,,,
,,,,,,,,,,,
,,,,,,,,,,,
,,,,,,,,,,,
,,,,,,,,,,,
,,,,,,,,,,,
,,,,,,,,,,,
,,,,,,,,,,,
,,,,,,,,,,,
,,,,,,,,,,,
,,,,,,,,,,,
,,,,,,,,,,,
,,,,,,,,,,,
,,,,,,,,,,,
,,,,,,,,,,,
,,,,,,,,,,,
,,,,,,,,,,,
,,,,,,,,,,,
,,,,,,,,,,,
,,,,,,,,,,,
,,,,,,,,,,,
,,,,,,,,,,,
,,,,,,,,,,,
,,,,,,,,,,,
,,,,,,,,,,,
,,,,,,,,,,,
,,,,,,,,,,,
,,,,,,,,,,,
,,,,,,,,,,,
,,,,,,,,,,,
,,,,,,,,,,,
,,,,,,,,,,,
,,,,,,,,,,,
,,,,,,,,,,,
,,,,,,,,,,,
,,,,,,,,,,,
,,,,,,,,,,,
,,,,,,,,,,,
,,,,,,,,,,,
,,,,,,,,,,,
,,,,,,,,,,,
,,,,,,,,,,,
,,,,,,,,,,,
,,,,,,,,,,,
,,,,,,,,,,,
,,,,,,,,,,,
,,,,,,,,,,,
,,,,,,,,,,,
,,,,,,,,,,,
,,,,,,,,,,,
,,,,,,,,,,,
,,,,,,,,,,,
,,,,,,,,,,,
,,,,,,,,,,,
,,,,,,,,,,,
,,,,,,,,,,,
,,,,,,,,,,,
,,,,,,,,,,,
,,,,,,,,,,,
,,,,,,,,,,,
,,,,,,,,,,,
,,,,,,,,,,,
,,,,,,,,,,,
,,,,,,,,,,,
,,,,,,,,,,,
,,,,,,,,,,,
,,,,,,,,,,,
,,,,,,,,,,,
,,,,,,,,,,,
,,,,,,,,,,,
,,,,,,,,,,,
,,,,,,,,,,,
,,,,,,,,,,,
,,,,,,,,,,,
,,,,,,,,,,,
,,,,,,,,,,,
,,,,,,,,,,,
,,,,,,,,,,,
,,,,,,,,,,,
,,,,,,,,,,,
,,,,,,,,,,,
,,,,,,,,,,,
,,,,,,,,,,,
,,,,,,,,,,,
,,,,,,,,,,,
,,,,,,,,,,,
,,,,,,,,,,,
,,,,,,,,,,,
,,,,,,,,,,,
,,,,,,,,,,,
,,,,,,,,,,,
,,,,,,,,,,,
,,,,,,,,,,,
,,,,,,,,,,,
,,,,,,,,,,,
,,,,,,,,,,,
,,,,,,,,,,,
,,,,,,,,,,,
,,,,,,,,,,,
,,,,,,,,,,,
,,,,,,,,,,,
,,,,,,,,,,,
,,,,,,,,,,,
,,,,,,,,,,,
,,,,,,,,,,,
,,,,,,,,,,,
,,,,,,,,,,,
,,,,,,,,,,,
,,,,,,,,,,,
,,,,,,,,,,,
,,,,,,,,,,,
,,,,,,,,,,,
,,,,,,,,,,,
,,,,,,,,,,,
,,,,,,,,,,,
,,,,,,,,,,,
,,,,,,,,,,,
,,,,,,,,,,,
,,,,,,,,,,,
,,,,,,,,,,,
,,,,,,,,,,,
,,,,,,,,,,,
,,,,,,,,,,,
,,,,,,,,,,,
,,,,,,,,,,,
,,,,,,,,,,,
,,,,,,,,,,,
,,,,,,,,,,,
,,,,,,,,,,,
,,,,,,,,,,,
,,,,,,,,,,,
,,,,,,,,,,,
,,,,,,,,,,,
,,,,,,,,,,,
,,,,,,,,,,,
,,,,,,,,,,,
,,,,,,,,,,,
,,,,,,,,,,,
,,,,,,,,,,,
,,,,,,,,,,,
,,,,,,,,,,,
,,,,,,,,,,,
,,,,,,,,,,,
,,,,,,,,,,,
,,,,,,,,,,,
,,,,,,,,,,,
,,,,,,,,,,,
,,,,,,,,,,,
,,,,,,,,,,,
,,,,,,,,,,,
,,,,,,,,,,,
,,,,,,,,,,,
,,,,,,,,,,,
,,,,,,,,,,,
,,,,,,,,,,,
,,,,,,,,,,,
,,,,,,,,,,,
,,,,,,,,,,,
,,,,,,,,,,,
,,,,,,,,,,,
,,,,,,,,,,,
,,,,,,,,,,,
,,,,,,,,,,,
,,,,,,,,,,,
,,,,,,,,,,,
,,,,,,,,,,,
,,,,,,,,,,,
,,,,,,,,,,,
,,,,,,,,,,,
,,,,,,,,,,,
,,,,,,,,,,,
,,,,,,,,,,,
,,,,,,,,,,,
,,,,,,,,,,,
,,,,,,,,,,,
,,,,,,,,,,,
,,,,,,,,,,,
,,,,,,,,,,,
,,,,,,,,,,,
,,,,,,,,,,,
,,,,,,,,,,,
,,,,,,,,,,,
,,,,,,,,,,,
,,,,,,,,,,,
,,,,,,,,,,,
,,,,,,,,,,,
,,,,,,,,,,,
,,,,,,,,,,,
,,,,,,,,,,,
,,,,,,,,,,,
,,,,,,,,,,,
,,,,,,,,,,,
,,,,,,,,,,,
,,,,,,,,,,,
,,,,,,,,,,,
,,,,,,,,,,,
,,,,,,,,,,,
,,,,,,,,,,,
,,,,,,,,,,,
,,,,,,,,,,,
,,,,,,,,,,,
,,,,,,,,,,,
,,,,,,,,,,,
,,,,,,,,,,,
,,,,,,,,,,,
,,,,,,,,,,,
,,,,,,,,,,,
,,,,,,,,,,,
,,,,,,,,,,,
,,,,,,,,,,,
,,,,,,,,,,,
,,,,,,,,,,,
,,,,,,,,,,,
,,,,,,,,,,,
,,,,,,,,,,,
,,,,,,,,,,,
,,,,,,,,,,,
,,,,,,,,,,,
,,,,,,,,,,,
,,,,,,,,,,,
,,,,,,,,,,,
,,,,,,,,,,,
,,,,,,,,,,,
,,,,,,,,,,,
,,,,,,,,,,,
,,,,,,,,,,,
,,,,,,,,,,,
,,,,,,,,,,,
,,,,,,,,,,,
,,,,,,,,,,,
,,,,,,,,,,,
,,,,,,,,,,,
,,,,,,,,,,,
,,,,,,,,,,,
,,,,,,,,,,,
,,,,,,,,,,,
,,,,,,,,,,,
,,,,,,,,,,,
,,,,,,,,,,,
,,,,,,,,,,,
,,,,,,,,,,,
,,,,,,,,,,,
,,,,,,,,,,,
,,,,,,,,,,,
,,,,,,,,,,,
,,,,,,,,,,,
,,,,,,,,,,,
,,,,,,,,,,,
,,,,,,,,,,,
,,,,,,,,,,,
,,,,,,,,,,,
,,,,,,,,,,,
,,,,,,,,,,,
,,,,,,,,,,,
,,,,,,,,,,,
,,,,,,,,,,,
,,,,,,,,,,,
,,,,,,,,,,,
,,,,,,,,,,,
,,,,,,,,,,,
,,,,,,,,,,,
,,,,,,,,,,,
,,,,,,,,,,,
,,,,,,,,,,,
,,,,,,,,,,,
,,,,,,,,,,,
,,,,,,,,,,,
,,,,,,,,,,,
,,,,,,,,,,,
,,,,,,,,,,,
,,,,,,,,,,,
,,,,,,,,,,,
,,,,,,,,,,,
,,,,,,,,,,,
,,,,,,,,,,,
,,,,,,,,,,,
,,,,,,,,,,,
,,,,,,,,,,,
,,,,,,,,,,,
,,,,,,,,,,,
,,,,,,,,,,,
,,,,,,,,,,,
,,,,,,,,,,,
,,,,,,,,,,,
,,,,,,,,,,,
,,,,,,,,,,,
,,,,,,,,,,,
,,,,,,,,,,,
,,,,,,,,,,,
,,,,,,,,,,,
,,,,,,,,,,,
,,,,,,,,,,,
,,,,,,,,,,,
,,,,,,,,,,,
,,,,,,,,,,,
,,,,,,,,,,,
,,,,,,,,,,,
,,,,,,,,,,,
,,,,,,,,,,,
,,,,,,,,,,,
,,,,,,,,,,,
,,,,,,,,,,,
,,,,,,,,,,,
,,,,,,,,,,,
,,,,,,,,,,,
,,,,,,,,,,,
,,,,,,,,,,,
,,,,,,,,,,,
,,,,,,,,,,,
,,,,,,,,,,,
,,,,,,,,,,,
,,,,,,,,,,,
,,,,,,,,,,,
,,,,,,,,,,,
,,,,,,,,,,,
,,,,,,,,,,,
,,,,,,,,,,,
,,,,,,,,,,,
,,,,,,,,,,,
,,,,,,,,,,,
,,,,,,,,,,,
,,,,,,,,,,,
,,,,,,,,,,,
,,,,,,,,,,,
,,,,,,,,,,,
,,,,,,,,,,,
,,,,,,,,,,,
,,,,,,,,,,,
,,,,,,,,,,,
,,,,,,,,,,,
,,,,,,,,,,,
,,,,,,,,,,,
,,,,,,,,,,,
,,,,,,,,,,,
,,,,,,,,,,,
,,,,,,,,,,,
,,,,,,,,,,,
,,,,,,,,,,,
,,,,,,,,,,,
,,,,,,,,,,,
,,,,,,,,,,,
,,,,,,,,,,,
,,,,,,,,,,,
,,,,,,,,,,,
,,,,,,,,,,,
,,,,,,,,,,,
,,,,,,,,,,,
,,,,,,,,,,,
,,,,,,,,,,,
,,,,,,,,,,,
,,,,,,,,,,,
,,,,,,,,,,,
,,,,,,,,,,,
,,,,,,,,,,,
,,,,,,,,,,,
,,,,,,,,,,,
,,,,,,,,,,,
,,,,,,,,,,,
,,,,,,,,,,,
,,,,,,,,,,,
,,,,,,,,,,,
,,,,,,,,,,,
,,,,,,,,,,,
,,,,,,,,,,,
,,,,,,,,,,,
,,,,,,,,,,,
,,,,,,,,,,,
,,,,,,,,,,,
,,,,,,,,,,,
,,,,,,,,,,,
,,,,,,,,,,,
,,,,,,,,,,,
,,,,,,,,,,,
,,,,,,,,,,,
,,,,,,,,,,,
,,,,,,,,,,,
,,,,,,,,,,,
,,,,,,,,,,,
,,,,,,,,,,,
,,,,,,,,,,,
,,,,,,,,,,,
,,,,,,,,,,,
,,,,,,,,,,,
,,,,,,,,,,,
,,,,,,,,,,,
,,,,,,,,,,,
,,,,,,,,,,,
,,,,,,,,,,,
,,,,,,,,,,,
,,,,,,,,,,,
,,,,,,,,,,,
,,,,,,,,,,,
,,,,,,,,,,,
,,,,,,,,,,,
,,,,,,,,,,,
,,,,,,,,,,,
,,,,,,,,,,,
,,,,,,,,,,,
,,,,,,,,,,,
,,,,,,,,,,,
,,,,,,,,,,,
,,,,,,,,,,,
,,,,,,,,,,,
,,,,,,,,,,,
,,,,,,,,,,,
,,,,,,,,,,,
,,,,,,,,,,,
,,,,,,,,,,,
,,,,,,,,,,,
,,,,,,,,,,,
,,,,,,,,,,,
